Shipwrecks Network in the Mediterranean Basin
…
Sea Areas

The shipwrecks dataset has geographical information to produce networks of relations with possible trajectories of the Roman ships. These variables are the Sea area of the shipwreck together with the network data in Place of origin and Place of destination that are columns 5, 20 and 21 in object sw.

# geographic variables
sw[ ,c(5,20:21)]

# A tibble: 1,784 x 3
   `Sea area`            `Place of origin` `Place of destination`
   <chr>                 <chr>             <chr>                 
 1 Adriatic              Egypt             Northern Italy        
 2 Adriatic              Cos               Northern Italy        
 3 Adriatic              Rhodes            Northern Italy        
 4 Adriatic              Aegean            Northern Italy        
 5 Adriatic              <NA>              <NA>                  
 6 Adriatic              Rhodes            northern Italy        
 7 Adriatic              Aegean            Northern Italy        
 8 Western Mediterranean Aegean via Cosa   France                
 9 Tyrrhenian Sea        Aegean.           Rome                  
10 Adriatic              Aegean            Northern Italy        
# ... with 1,774 more rows
…
# entries in the first three centuries
require("magrittr")
swmpc%in%c('I','II','III') %>% 
  which() %>% 
  head(10)

 [1]  1  2  3  4  5  6  7 10 11 13

Look at these records in the whole shipwrecks dataset in sw.

# a tibble
sw[which(swmpc%in%c('I','II','III')), ]

# A tibble: 705 x 35
   `Wreck ID` `Strauss ID` Name    `Parker Number` `Sea area`   Country Region    Latitude Longitude
        <dbl>        <dbl> <chr>   <chr>           <chr>        <chr>   <chr>        <dbl>     <dbl>
 1          1          331 Komiza  <NA>            Adriatic     Croatia Vis Isla~     43.0      16.1
 2          2          328 Lokunji <NA>            Adriatic     Croatia Kvarner ~     44.7      14.3
 3          3          329 Mahara~ <NA>            Adriatic     Croatia Mljet is~     42.7      17.7
 4          4          330 Mlin    702             Adriatic     Croatia Split ch~     43.4      16.2
 5          5          322 Plavac~ 832             Adriatic     Croatia Zlarin I~     NA        NA  
 6          6          326 Tramer~ <NA>            Adriatic     Croatia Northern~     44.2      14.8
 7          7          332 Veliki~ <NA>            Adriatic     Croatia Mljet is~     42.7      17.8
 8         10          323 Koroma~ <NA>            Adriatic     Croatia North si~     43.6      15.6
 9         11          372 Ognina~ 755             Central Med~ Italy   Near Syr~     NA        NA  
10         13          337 Vele O~ <NA>            Adriatic     Croatia Near Los~     44.5      14.5
# ... with 695 more rows, and 26 more variables: Min depth <dbl>, Max depth <dbl>, Depth <chr>,
#   Period <chr>, Dating <chr>, Earliest date <dbl>, Latest date <dbl>, Date range <dbl>,
#   Mid point of date range <dbl>, Probability <dbl>, Place of origin <chr>,
#   Place of destination <chr>, Reference <chr>, Comments <chr>, Amphorae <lgl>, Marble <lgl>,
#   Columns etc <lgl>, Sarcophagi <lgl>, Blocks <lgl>, Marble type <chr>, Other cargo <chr>,
#   Hull remains <chr>, Shipboard paraphernalia <chr>, Ship equipment <chr>,
#   Estimated tonnage <dbl>, Amphora type <chr>
…
